﻿Designator,Device,Footprint,Mid X,Mid Y,Ref X,Ref Y,Pad X,Pad Y,Layer,Rotation,SMD,Comment
"R6"	,"AECR0603F330RK9"	,"R0603"	,"19.426mm"	,"111.252mm"	,"19.426mm"	,"111.252mm"	,"19.426mm"	,"110.499mm"	,"T"	,"90"	,"Yes"	,"330Ω"	,
"R7"	,"WR06X2152FTL"	,"R0603"	,"28.202mm"	,"111.252mm"	,"28.202mm"	,"111.252mm"	,"28.202mm"	,"110.499mm"	,"T"	,"90"	,"Yes"	,"21.5kΩ"	,
"Q1"	,"2n3904S-RTK/PS"	,"SOT-23-3_L2.9-W1.3-P1.90-LS2.4-TR"	,"18.468mm"	,"117.475mm"	,"18.468mm"	,"117.475mm"	,"19.418mm"	,"116.225mm"	,"T"	,"270"	,"Yes"	,"2n3904S-RTK/PS_C18536"	,
"Q2"	,"2n3904S-RTK/PS"	,"SOT-23-3_L2.9-W1.3-P1.90-LS2.4-TR"	,"29.083mm"	,"117.348mm"	,"29.083mm"	,"117.348mm"	,"30.033mm"	,"116.098mm"	,"T"	,"270"	,"Yes"	,"2n3904S-RTK/PS_C18536"	,
"R1"	,"ETCR0603F51K0K9"	,"R0603"	,"11.582mm"	,"121.158mm"	,"11.582mm"	,"121.158mm"	,"11.582mm"	,"120.405mm"	,"T"	,"90"	,"Yes"	,"51kΩ"	,
"R3"	,"0603WAF1502T5E"	,"R0603"	,"28.194mm"	,"121.158mm"	,"28.194mm"	,"121.158mm"	,"28.194mm"	,"120.405mm"	,"T"	,"90"	,"Yes"	,"15kΩ"	,
"R4"	,"PTFR0603B75R0N9"	,"R0603"	,"33.655mm"	,"121.92mm"	,"33.655mm"	,"121.92mm"	,"34.408mm"	,"121.92mm"	,"T"	,"180"	,"Yes"	,"75Ω"	,
"R5"	,"ARG03FTC3302"	,"R0603"	,"17.526mm"	,"111.252mm"	,"17.526mm"	,"111.252mm"	,"17.526mm"	,"110.499mm"	,"T"	,"90"	,"Yes"	,"33kΩ"	,
"R8"	,"CR0603JA0220G"	,"R0603"	,"30.041mm"	,"111.252mm"	,"30.041mm"	,"111.252mm"	,"30.041mm"	,"110.499mm"	,"T"	,"90"	,"Yes"	,"22Ω"	,
"AUDIO-VIDEO"	,"PJ-393-7A"	,"AUDIO-SMD_PJ-393-7A"	,"31.852mm"	,"103.937mm"	,"31.852mm"	,"103.937mm"	,"35.902mm"	,"107.437mm"	,"T"	,"-90"	,"Yes"	,"PJ-393-7A"	,
"C4"	,"VT1E101M0607"	,"CAP-SMD_BD6.3-L6.6-W6.6-FD-1"	,"32.969mm"	,"94.945mm"	,"32.969mm"	,"94.945mm"	,"30.299mm"	,"94.945mm"	,"T"	,"0"	,"Yes"	,"100uF"	,
"C3"	,"VT1E101M0607"	,"CAP-SMD_BD6.3-L6.6-W6.6-FD-1"	,"34.442mm"	,"116.027mm"	,"34.442mm"	,"116.027mm"	,"34.442mm"	,"118.697mm"	,"T"	,"-90"	,"Yes"	,"100uF"	,
"C2"	,"VT1E101M0607"	,"CAP-SMD_BD6.3-L6.6-W6.6-FD-1"	,"23.724mm"	,"116.027mm"	,"23.724mm"	,"116.027mm"	,"23.724mm"	,"118.697mm"	,"T"	,"-90"	,"Yes"	,"100uF"	,
"C1"	,"VT1E101M0607"	,"CAP-SMD_BD6.3-L6.6-W6.6-FD-1"	,"13.056mm"	,"116.027mm"	,"13.056mm"	,"116.027mm"	,"13.056mm"	,"118.697mm"	,"T"	,"-90"	,"Yes"	,"100uF"	,
"R2"	,"RTT036650FTP"	,"R0603"	,"18.44mm"	,"121.158mm"	,"18.44mm"	,"121.158mm"	,"18.44mm"	,"121.911mm"	,"T"	,"-90"	,"Yes"	,"665Ω"	,
"H1"	,"PZ254V-11-04P"	,"HDR-TH_4P-P2.54-V-M"	,"13.056mm"	,"107.036mm"	,"13.056mm"	,"107.036mm"	,"9.246mm"	,"107.036mm"	,"T"	,"0"	,"No"	,"PZ254V-11-04P"	,
